{
    "autoMode": "速度优先",
    "isAuto": true,
    "jiexis": [
        {
            "al": [
                "江湖D"
            ],
            "bl": [
                "OK解析"
            ],
            "fun": [
                "融兴"
            ],
            "le": [
                "迪奥嗅探"
            ],
            "mg": [
                "蚂蚁兄弟",
                "迪奥嗅探"
            ],
            "mi": [
                "1080"
            ],
            "name": "道长推荐",
            "one": [
                "1080"
            ],
            "pp": [
                "人人迷"
            ],
            "qy": [
                "融兴"
            ],
            "sh": [
                "江湖D"
            ],
            "tx": [
                "融兴",
                "扶风",
                "云海正版",
                "百度",
                "你爹科技",
                "迪奥嗅探"
            ],
            "xg": [
                "江湖D",
                "4k"
            ],
            "yk": [
                "领酷"
            ]
        },
        {
            "al": [
                "江湖D",
                "OK",
                "①ptygx🔹"
            ],
            "bl": [
                "OK解析",
                "江湖A",
                "扶风云",
                "江湖F"
            ],
            "fun": [
                "融兴",
                "萌欣1",
                "萌新"
            ],
            "le": [
                "迪奥嗅探",
                "宏仔"
            ],
            "mg": [
                "蚂蚁兄弟",
                "江湖B",
                "淘影1080"
            ],
            "mi": [
                "1080"
            ],
            "name": "蓝莓推荐",
            "one": [],
            "pp": [
                "干饭(人人迷)",
                "宏仔",
                "航海锚"
            ],
            "qy": [
                "你爹科技",
                "淘影",
                "迪奥嗅探",
                "思云"
            ],
            "sh": [
                "江湖D",
                "融兴",
                "①ptygx🔹"
            ],
            "tx": [
                "荣耀",
                "扶风云",
                "倍陆"
            ],
            "xg": [
                "江湖D",
                "萌欣",
                "优惠福利购"
            ],
            "yk": [
                "瞄派对",
                "领酷",
                "云海正版"
            ]
        },
        {
            "al": [
                "江湖D"
            ],
            "bl": [
                "OK解析",
                "人人1",
                "ptygx🔹",
                "云云直链"
            ],
            "fun": [
                "融兴"
            ],
            "le": [
                "迪奥嗅探"
            ],
            "mg": [
                "蚂蚁兄弟",
                "浆糊3",
                "思云解析☯",
                "app影视工厂",
                "人人1"
            ],
            "mi": [
                "1080"
            ],
            "name": "野蛮人",
            "one": [],
            "pp": [
                "人人迷",
                "人人1"
            ],
            "qy": [
                "你爹科技",
                "暮光",
                "M3U8TV",
                "迪奥嗅探",
                "人人迷",
                "思云解析☯"
            ],
            "sh": [
                "江湖D",
                "ptygx🔹"
            ],
            "tx": [
                "荣耀",
                "DiaoSi",
                "云海正版",
                "浆糊3",
                "浆糊2X",
                "思云解析☯"
            ],
            "xg": [
                "江湖D",
                "ptygx🔹"
            ],
            "yk": [
                "领酷",
                "DiaoSi",
                "云海正版",
                "思云解析☯",
                "浆糊2X",
                "浆糊3"
            ]
        },
        {
            "al": [
                "江湖D",
                "海绵☯",
                "阿里☯"
            ],
            "bl": [
                "OK解析",
                "扶风云☯",
                "Mao网☯"
            ],
            "fun": [
                "融兴",
                "道长仓库通免"
            ],
            "le": [
                "迪奥嗅探"
            ],
            "mg": [
                "蚂蚁兄弟",
                "江湖F☯",
                "芒果☯"
            ],
            "mi": [
                "1080"
            ],
            "name": "团荐",
            "one": [],
            "pp": [
                "人人迷",
                "信达解析☯"
            ],
            "qy": [
                "你爹科技",
                "扶风云☯",
                "恐怖鸭☯"
            ],
            "sh": [
                "江湖D",
                "追剧达人☯"
            ],
            "tx": [
                "荣耀",
                "海绵☯",
                "爱爱"
            ],
            "xg": [
                "江湖D"
            ],
            "yk": [
                "领酷",
                "海绵☯",
                "思云解析☯"
            ]
        },
        {
            "al": [
                "江湖D",
                "OK",
                "①ptygx🔹",
                "挚爱",
                "海绵"
            ],
            "bl": [
                "OK解析",
                "江湖A",
                "扶风云",
                "江湖F",
                "江湖D",
                "万福",
                "优全",
                "4k",
                "Mao"
            ],
            "fun": [
                "融兴",
                "萌欣1",
                "萌新",
                "道长仓库通免"
            ],
            "le": [
                "迪奥嗅探",
                "宏仔"
            ],
            "mg": [
                "蚂蚁兄弟",
                "江湖B",
                "淘影1080",
                "鲨鱼"
            ],
            "mi": [
                "1080"
            ],
            "name": "ଳ.余热ꦿ᭄ঞ",
            "one": [
                "1080"
            ],
            "pp": [
                "干饭(人人迷)",
                "宏仔",
                "航海锚",
                "信达解析"
            ],
            "qy": [
                "融兴",
                "你爹科技",
                "淘影",
                "迪奥嗅探",
                "思云",
                "恐怖鸭"
            ],
            "sh": [
                "江湖D",
                "融兴",
                "①ptygx🔹"
            ],
            "tx": [
                "荣耀",
                "扶风云",
                "倍陆",
                "爱爱解析☯"
            ],
            "xg": [
                "江湖D",
                "萌欣",
                "优惠福利购"
            ],
            "yk": [
                "领酷",
                "云海正版",
                "瞄派对"
            ]
        },
        {
            "al": [
                "江湖D",
                "OK",
                "①ptygx🔹"
            ],
            "bl": [
                "OK解析",
                "江湖A",
                "扶风云",
                "江湖F"
            ],
            "fun": [
                "淘影1080",
                "步步高",
                "融兴",
                "萌新"
            ],
            "le": [
                "淘影",
                "航海锚",
                "人人迷",
                "迪奥嗅探",
                "云海正版"
            ],
            "mg": [
                "江湖科技2",
                "宏仔",
                "蚂蚁兄弟",
                "江湖B",
                "淘影"
            ],
            "mi": [
                "萌新",
                "你爹科技",
                "江湖科技2",
                "荣耀",
                "百度",
                "66影视"
            ],
            "name": "蓝莓推荐2",
            "one": [
                "扶风",
                "优惠福利购",
                "星空",
                "九八"
            ],
            "pp": [
                "宏仔",
                "干饭(人人迷)",
                "航海锚",
                "江湖科技2",
                "淘影"
            ],
            "qy": [
                "你爹科技",
                "淘影",
                "江湖科技2",
                "追剧达人2",
                "迪奥嗅探",
                "思云"
            ],
            "sh": [
                "江湖D",
                "融兴",
                "①ptygx🔹",
                "江湖科技2"
            ],
            "tx": [
                "优惠福利购",
                "扶风云",
                "江湖科技2",
                "融兴",
                "4k",
                "app影视工厂"
            ],
            "xg": [
                "江湖科技2",
                "江湖D",
                "app影视工厂",
                "你爹科技"
            ],
            "yk": [
                "云海正版",
                "扶风云",
                "干饭(人人迷)",
                "app影视工厂",
                "江湖B"
            ]
        },
        {
            "al": [
                "江湖D",
                "OK",
                "航海锚"
            ],
            "bl": [
                "OK",
                "泡泡堂",
                "淘影蓝光",
                "江湖F",
                "116"
            ],
            "fun": [
                "淘影1080",
                "步步高",
                "融兴",
                "萌新"
            ],
            "le": [
                "泡泡堂",
                "淘影",
                "航海锚",
                "人人迷",
                "迪奥嗅探"
            ],
            "mg": [
                "江湖科技2",
                "江湖D",
                "宏仔",
                "江湖B",
                "蚂蚁兄弟",
                "淘影"
            ],
            "mi": [
                "萌新",
                "你爹科技",
                "江湖科技2",
                "荣耀",
                "百度",
                "66影视"
            ],
            "name": "蓝莓原生推荐",
            "one": [
                "泡泡堂",
                "追剧达人3",
                "优惠福利购",
                "星空",
                "九八"
            ],
            "pp": [
                "宏仔",
                "干饭(人人迷)",
                "航海锚",
                "江湖科技2",
                "淘影"
            ],
            "qy": [
                "你爹科技",
                "江湖科技2",
                "淘影",
                "追剧达人2",
                "迪奥嗅探",
                "融兴",
                "云海正版"
            ],
            "sh": [
                "泡泡堂",
                "app影视工厂",
                "江湖科技2",
                "融兴",
                "ptygx",
                "迪奥嗅探"
            ],
            "tx": [
                "扶风",
                "app影视工厂",
                "荣耀",
                "你爹科技",
                "江湖科技2",
                "江湖D",
                "云海正版"
            ],
            "xg": [
                "江湖科技2",
                "江湖D",
                "app影视工厂",
                "你爹科技"
            ],
            "yk": [
                "app影视工厂",
                "人人迷-优酷",
                "江湖科技2",
                "江湖B",
                "航海锚"
            ]
        }
    ],
    "now": "道长推荐"
}